viz
…
# Positivity evaluation regarding the count of words
pos = data %>%
  group_by(Reviewer_Nationality) %>%
  summarize(sum_pos = sum(Review_Total_Positive_Word_Counts), sum_neg = sum(Review_Total_Negative_Word_Counts)) %>%
  select(Reviewer_Nationality, sum_pos, sum_neg) %>%
  mutate(proportion = round(sum_pos / (sum_pos + sum_neg),2)) %>%
  arrange(desc(proportion))
pos

## # A tibble: 227 x 4
##    Reviewer_Nationality         sum_pos sum_neg proportion
##    <fct>                          <int>   <int>      <dbl>
##  1 " Cape Verde "                    51       0       1   
##  2 " Comoros "                        6       0       1   
##  3 " Crimea "                       174       0       1   
##  4 " Equatorial Guinea "             45       0       1   
##  5 " South Sudan "                   25       0       1   
##  6 " Gambia "                        37       4       0.9 
##  7 " Antarctica "                    92      15       0.86
##  8 " Guyana "                       128      29       0.82
##  9 " Djibouti "                      69      17       0.8 
## 10 " Saint Vincent Grenadines "      61      18       0.77
## # ... with 217 more rows

# Reviews made by nationality
reviews_p_nation = data %>%
  group_by(Reviewer_Nationality) %>%
  summarise(quantity = n()) %>%
  select(Reviewer_Nationality, quantity) %>%
  arrange(desc(quantity))
reviews_p_nation 

## # A tibble: 227 x 2
##    Reviewer_Nationality         quantity
##    <fct>                           <int>
##  1 " United Kingdom "             245246
##  2 " United States of America "    35437
##  3 " Australia "                   21686
##  4 " Ireland "                     14827
##  5 " United Arab Emirates "        10235
##  6 " Saudi Arabia "                 8951
##  7 " Netherlands "                  8772
##  8 " Switzerland "                  8678
##  9 " Germany "                      7941
## 10 " Canada "                       7894
## # ... with 217 more rows
…
##########################
### Parameters to edit ###
##########################
target_nations = c('United Arab*')

# Use the days since review variable to find a trend when more vacation is made
trend = data %>%
  group_by(days_since_review, Reviewer_Nationality) %>%
  summarise(count = n()) %>%
  filter(str_detect(Reviewer_Nationality, target_nations))
trend

## # A tibble: 728 x 3
## # Groups:   days_since_review [728]
##    days_since_review Reviewer_Nationality     count
##                <dbl> <fct>                    <int>
##  1                 0 " United Arab Emirates "    26
##  2                 1 " United Arab Emirates "    57
##  3                 2 " United Arab Emirates "    15
##  4                 3 " United Arab Emirates "    21
##  5                 4 " United Arab Emirates "    23
##  6                 5 " United Arab Emirates "    17
##  7                 6 " United Arab Emirates "    17
##  8                 7 " United Arab Emirates "     9
##  9                 8 " United Arab Emirates "    15
## 10                 9 " United Arab Emirates "    23
## # ... with 718 more rows
…
